Phi:(R) = lambda Y:(R) lambda (z:R) (z=0 v Y(z-1))
N:(R) = Mu(Phi)
PhiInf:(R) = lambda X:(R) lambda (x:R) (0<x and X(x-1))
Inf:(R) = Nu(PhiInf)
PhiC:(R) = lambda X:(R) lambda (x:R) ex (y:R) (N(y) and abs(x-y)<=1 and X(2*x))
C:(R) = Nu(PhiC)
SD:(R) = lambda (x:R) ((x = m v x = 1) v x = 0)
PhiS:(R) = lambda X:(R) lambda (x:R) ex (d:R) (SD(d) and  (abs(2*x-d)<= 1) and X(2*x-d))
S:(R) = Nu(PhiS)
B:(R) = lambda (x:R) (x <= 0 v 0 <= x)
D:(R) = lambda (x:R) (not (x = 0)) -> B(x)
PhiG:(R) = lambda X:(R) lambda (x:R) (m <= x and x <= 1) and (D(x) and X(t(x)))
G:(R) = Nu(PhiG)
S':(R) = lambda (y:R) ex x:R S(x) and y = 1-2*abs(x)
PhiAccp:(R) = lambda X:(R) lambda (x:R) (All y:R y << x -> X(y))
Accp:(R) = Mu(PhiAccp)

